\relax 
\providecommand\hyper@newdestlabel[2]{}
\providecommand\HyperFirstAtBeginDocument{\AtBeginDocument}
\HyperFirstAtBeginDocument{\ifx\hyper@anchor\@undefined
\global\let\oldcontentsline\contentsline
\gdef\contentsline#1#2#3#4{\oldcontentsline{#1}{#2}{#3}}
\global\let\oldnewlabel\newlabel
\gdef\newlabel#1#2{\newlabelxx{#1}#2}
\gdef\newlabelxx#1#2#3#4#5#6{\oldnewlabel{#1}{{#2}{#3}}}
\AtEndDocument{\ifx\hyper@anchor\@undefined
\let\contentsline\oldcontentsline
\let\newlabel\oldnewlabel
\fi}
\fi}
\global\let\hyper@last\relax 
\gdef\HyperFirstAtBeginDocument#1{#1}
\providecommand\HyField@AuxAddToFields[1]{}
\providecommand\HyField@AuxAddToCoFields[2]{}
\providecommand \oddpage@label [2]{}
\@writefile{toc}{\contentsline {chapter}{\numberline {1}Class Index}{1}{chapter.1}}
\@writefile{lof}{\addvspace {10\p@ }}
\@writefile{lot}{\addvspace {10\p@ }}
\@writefile{toc}{\contentsline {section}{\numberline {1.1}Class List}{1}{section.1.1}}
\@writefile{toc}{\contentsline {chapter}{\numberline {2}File Index}{3}{chapter.2}}
\@writefile{lof}{\addvspace {10\p@ }}
\@writefile{lot}{\addvspace {10\p@ }}
\@writefile{toc}{\contentsline {section}{\numberline {2.1}File List}{3}{section.2.1}}
\@writefile{toc}{\contentsline {chapter}{\numberline {3}Class Documentation}{5}{chapter.3}}
\@writefile{lof}{\addvspace {10\p@ }}
\@writefile{lot}{\addvspace {10\p@ }}
\@writefile{toc}{\contentsline {section}{\numberline {3.1}Calculadora$<$ Data $>$ Class Template Reference}{5}{section.3.1}}
\newlabel{classCalculadora}{{3.1}{5}{Calculadora$<$ Data $>$ Class Template Reference}{section.3.1}{}}
\newlabel{classCalculadora_a435e6d2eb1fc7c275dc7735cb6548d32}{{3.1}{5}{Public Member Functions}{section*.2}{}}
\newlabel{classCalculadora_ae7da6986afa3cd399e12dbb4a99b1d0d}{{3.1}{5}{Public Member Functions}{section*.2}{}}
\@writefile{toc}{\contentsline {subsection}{\numberline {3.1.1}Detailed Description}{5}{subsection.3.1.1}}
\@writefile{toc}{\contentsline {subsection}{\numberline {3.1.2}Member Function Documentation}{5}{subsection.3.1.2}}
\newlabel{classCalculadora_a107ddb68b3bbdae4e79c69f3ccd58d5d}{{3.1.2}{5}{Member Function Documentation}{subsection.3.1.2}{}}
\gdef \LT@i {\LT@entry 
    {3}{28.81068pt}\LT@entry 
    {3}{149.6022pt}}
\gdef \LT@ii {\LT@entry 
    {3}{31.80762pt}\LT@entry 
    {3}{168.11479pt}}
\gdef \LT@iii {\LT@entry 
    {3}{31.80762pt}\LT@entry 
    {3}{168.11479pt}}
\@writefile{toc}{\contentsline {subsubsection}{\numberline {3.1.2.1}add()}{6}{subsubsection.3.1.2.1}}
\newlabel{classCalculadora_a58bb4ef9d7d9b00018f76c130e76f6cf}{{3.1.2.1}{6}{\texorpdfstring {add()}{add()}}{table.3.1}{}}
\@writefile{toc}{\contentsline {subsubsection}{\numberline {3.1.2.2}div()}{6}{subsubsection.3.1.2.2}}
\newlabel{classCalculadora_a023848aad73b141cf1ee4010035b6e9f}{{3.1.2.2}{6}{\texorpdfstring {div()}{div()}}{table.3.2}{}}
\@writefile{toc}{\contentsline {subsubsection}{\numberline {3.1.2.3}mul()}{6}{subsubsection.3.1.2.3}}
\newlabel{classCalculadora_aa9f12958c82a9022ddcbd42aee9281ae}{{3.1.2.3}{6}{\texorpdfstring {mul()}{mul()}}{table.3.3}{}}
\gdef \LT@iv {\LT@entry 
    {3}{31.80762pt}\LT@entry 
    {3}{126.58965pt}}
\gdef \LT@v {\LT@entry 
    {3}{31.80762pt}\LT@entry 
    {3}{168.11479pt}}
\@writefile{toc}{\contentsline {subsubsection}{\numberline {3.1.2.4}print()}{7}{subsubsection.3.1.2.4}}
\newlabel{classCalculadora_a6116b678b6d8b979d0b92865c91f4ef4}{{3.1.2.4}{7}{\texorpdfstring {print()}{print()}}{table.3.4}{}}
\@writefile{toc}{\contentsline {subsubsection}{\numberline {3.1.2.5}sub()}{7}{subsubsection.3.1.2.5}}
\@writefile{toc}{\contentsline {section}{\numberline {3.2}Fraccion Class Reference}{7}{section.3.2}}
\newlabel{classFraccion}{{3.2}{7}{Fraccion Class Reference}{section.3.2}{}}
\newlabel{classFraccion_abb2ec579092e5bc50e7c3644ea718084}{{3.2}{7}{Public Member Functions}{section*.4}{}}
\gdef \LT@vi {\LT@entry 
    {3}{30.2147pt}\LT@entry 
    {3}{94.08237pt}}
\newlabel{classFraccion_add28ed81617181a3590c59ffb2150b69}{{3.2}{8}{Public Member Functions}{section*.4}{}}
\newlabel{classFraccion_ac37833101402cd6676b72595c773a154}{{3.2}{8}{Public Member Functions}{section*.4}{}}
\newlabel{classFraccion_ae28e42ce5f56ef3b6c0120d9d4dd6627}{{3.2}{8}{Public Member Functions}{section*.4}{}}
\@writefile{toc}{\contentsline {subsection}{\numberline {3.2.1}Detailed Description}{8}{subsection.3.2.1}}
\@writefile{toc}{\contentsline {subsection}{\numberline {3.2.2}Constructor \& Destructor Documentation}{8}{subsection.3.2.2}}
\newlabel{classFraccion_ada568252dd7b11fcd7885ec3432ae429}{{3.2.2}{8}{Constructor \& Destructor Documentation}{subsection.3.2.2}{}}
\@writefile{toc}{\contentsline {subsubsection}{\numberline {3.2.2.1}Fraccion()}{8}{subsubsection.3.2.2.1}}
\@writefile{toc}{\contentsline {subsection}{\numberline {3.2.3}Member Function Documentation}{8}{subsection.3.2.3}}
\newlabel{classFraccion_ad993ea53924c3efde4fee0f76386a7da}{{3.2.3}{8}{Member Function Documentation}{subsection.3.2.3}{}}
\@writefile{toc}{\contentsline {subsubsection}{\numberline {3.2.3.1}operator$\ast $()}{8}{subsubsection.3.2.3.1}}
\gdef \LT@vii {\LT@entry 
    {3}{27.71269pt}\LT@entry 
    {3}{92.3452pt}}
\gdef \LT@viii {\LT@entry 
    {3}{27.71269pt}\LT@entry 
    {3}{92.3452pt}}
\gdef \LT@ix {\LT@entry 
    {3}{27.71269pt}\LT@entry 
    {3}{92.3452pt}}
\gdef \LT@x {\LT@entry 
    {3}{24.80576pt}\LT@entry 
    {3}{92.3452pt}}
\newlabel{classFraccion_a4ac759ff206d99d996897d3e1056205b}{{3.2.3.1}{9}{\texorpdfstring {operator$\ast $()}{operator*()}}{table.3.7}{}}
\@writefile{toc}{\contentsline {subsubsection}{\numberline {3.2.3.2}operator+()}{9}{subsubsection.3.2.3.2}}
\newlabel{classFraccion_abdcd59fe78e7e40c37796d941c946c9c}{{3.2.3.2}{9}{\texorpdfstring {operator+()}{operator+()}}{table.3.8}{}}
\@writefile{toc}{\contentsline {subsubsection}{\numberline {3.2.3.3}operator-\/()}{9}{subsubsection.3.2.3.3}}
\newlabel{classFraccion_a0fa2661252d5d460e56533c55102e0a3}{{3.2.3.3}{9}{\texorpdfstring {operator-\/()}{operator-()}}{table.3.9}{}}
\@writefile{toc}{\contentsline {subsubsection}{\numberline {3.2.3.4}operator/()}{9}{subsubsection.3.2.3.4}}
\newlabel{classFraccion_a9360f581bbad084a9b77a397d7563805}{{3.2.3.4}{9}{\texorpdfstring {operator/()}{operator/()}}{table.3.10}{}}
\gdef \LT@xi {\LT@entry 
    {3}{27.71269pt}\LT@entry 
    {3}{92.3452pt}}
\@writefile{toc}{\contentsline {subsubsection}{\numberline {3.2.3.5}operator=()}{10}{subsubsection.3.2.3.5}}
\@writefile{toc}{\contentsline {section}{\numberline {3.3}Polinomio Class Reference}{10}{section.3.3}}
\newlabel{classPolinomio}{{3.3}{10}{Polinomio Class Reference}{section.3.3}{}}
\newlabel{classPolinomio_a1023ada36c95fce6698316a632fdcc1c}{{3.3}{10}{Public Member Functions}{section*.5}{}}
\newlabel{classPolinomio_aa7ab58c2827bf21269026bbd96e69a74}{{3.3}{10}{Public Member Functions}{section*.5}{}}
\newlabel{classPolinomio_a41cbfa4b5735cbbc898d15f0366a1dd1}{{3.3}{10}{Public Member Functions}{section*.5}{}}
\newlabel{classPolinomio_a9f08755d5b71672328d56ea7764b68f5}{{3.3}{10}{Public Member Functions}{section*.5}{}}
\newlabel{classPolinomio_a53c39e4d8013ecb3c198b7b845fac5cd}{{3.3}{10}{Public Member Functions}{section*.5}{}}
\@writefile{toc}{\contentsline {subsection}{\numberline {3.3.1}Detailed Description}{10}{subsection.3.3.1}}
\gdef \LT@xii {\LT@entry 
    {3}{17.8039pt}\LT@entry 
    {3}{90.08646pt}}
\gdef \LT@xiii {\LT@entry 
    {3}{27.71269pt}\LT@entry 
    {3}{99.07713pt}}
\gdef \LT@xiv {\LT@entry 
    {3}{27.71269pt}\LT@entry 
    {3}{99.07713pt}}
\@writefile{toc}{\contentsline {subsection}{\numberline {3.3.2}Constructor \& Destructor Documentation}{11}{subsection.3.3.2}}
\newlabel{classPolinomio_aeb3a93c8a0e3617edfa0beb709056668}{{3.3.2}{11}{Constructor \& Destructor Documentation}{subsection.3.3.2}{}}
\@writefile{toc}{\contentsline {subsubsection}{\numberline {3.3.2.1}Polinomio()}{11}{subsubsection.3.3.2.1}}
\@writefile{toc}{\contentsline {subsection}{\numberline {3.3.3}Member Function Documentation}{11}{subsection.3.3.3}}
\newlabel{classPolinomio_a37e31284c67e16879193e8ea1d9d444f}{{3.3.3}{11}{Member Function Documentation}{subsection.3.3.3}{}}
\@writefile{toc}{\contentsline {subsubsection}{\numberline {3.3.3.1}operator$\ast $()}{11}{subsubsection.3.3.3.1}}
\newlabel{classPolinomio_a8b2ed797af5d211e4622643237061fac}{{3.3.3.1}{11}{\texorpdfstring {operator$\ast $()}{operator*()}}{table.3.13}{}}
\@writefile{toc}{\contentsline {subsubsection}{\numberline {3.3.3.2}operator+()}{11}{subsubsection.3.3.3.2}}
\gdef \LT@xv {\LT@entry 
    {3}{27.71269pt}\LT@entry 
    {3}{99.07713pt}}
\gdef \LT@xvi {\LT@entry 
    {3}{27.71269pt}\LT@entry 
    {3}{99.07713pt}}
\gdef \LT@xvii {\LT@entry 
    {3}{27.71269pt}\LT@entry 
    {3}{92.3452pt}}
\newlabel{classPolinomio_a59a263d2444b8dfe6d474350e5c126de}{{3.3.3.2}{12}{\texorpdfstring {operator+()}{operator+()}}{table.3.14}{}}
\@writefile{toc}{\contentsline {subsubsection}{\numberline {3.3.3.3}operator-\/()}{12}{subsubsection.3.3.3.3}}
\newlabel{classPolinomio_aa803eef2e86e5ecacf7a2b476b599604}{{3.3.3.3}{12}{\texorpdfstring {operator-\/()}{operator-()}}{table.3.15}{}}
\@writefile{toc}{\contentsline {subsubsection}{\numberline {3.3.3.4}operator/()}{12}{subsubsection.3.3.3.4}}
\newlabel{classPolinomio_a4fc72c320fe9844e411ac63a49ab54c6}{{3.3.3.4}{12}{\texorpdfstring {operator/()}{operator/()}}{table.3.16}{}}
\@writefile{toc}{\contentsline {subsubsection}{\numberline {3.3.3.5}operator=()}{12}{subsubsection.3.3.3.5}}
\@writefile{toc}{\contentsline {chapter}{\numberline {4}File Documentation}{13}{chapter.4}}
\@writefile{lof}{\addvspace {10\p@ }}
\@writefile{lot}{\addvspace {10\p@ }}
\@writefile{toc}{\contentsline {section}{\numberline {4.1}calculadora.\discretionary {\unhbox \voidb@x \hbox {\relax \fontsize  {7}{8}\selectfont  $\leftarrow \joinrel  \rhook $}}{}{}h File Reference}{13}{section.4.1}}
\newlabel{calculadora_8h}{{4.1}{13}{calculadora.\+h File Reference}{section.4.1}{}}
\@writefile{toc}{\contentsline {subsection}{\numberline {4.1.1}Detailed Description}{14}{subsection.4.1.1}}
\@writefile{toc}{\contentsline {section}{\numberline {4.2}fraccion.\discretionary {\unhbox \voidb@x \hbox {\relax \fontsize  {7}{8}\selectfont  $\leftarrow \joinrel  \rhook $}}{}{}h File Reference}{14}{section.4.2}}
\newlabel{fraccion_8h}{{4.2}{14}{fraccion.\+h File Reference}{section.4.2}{}}
\@writefile{toc}{\contentsline {subsection}{\numberline {4.2.1}Detailed Description}{15}{subsection.4.2.1}}
\@writefile{toc}{\contentsline {section}{\numberline {4.3}polinomio.\discretionary {\unhbox \voidb@x \hbox {\relax \fontsize  {7}{8}\selectfont  $\leftarrow \joinrel  \rhook $}}{}{}h File Reference}{15}{section.4.3}}
\newlabel{polinomio_8h}{{4.3}{15}{polinomio.\+h File Reference}{section.4.3}{}}
\@writefile{toc}{\contentsline {subsection}{\numberline {4.3.1}Detailed Description}{15}{subsection.4.3.1}}
\@writefile{toc}{\contentsline {chapter}{Index}{17}{section*.13}}
